run/transcript
# //  ModelSim SE 2021.2 Apr 14 2021 Linux 4.18.0-553.22.1.el8_10.x86_64
# //
# //  Copyright 1991-2021 Mentor Graphics Corporation
# //  All Rights Reserved.
# //
# //  ModelSim SE and its associated documentation contain trade
# //  secrets and commercial or financial information that are the property of
# //  Mentor Graphics Corporation and are privileged, confidential,
# //  and exempt from disclosure under the Freedom of Information Act,
# //  5 U.S.C. Section 552. Furthermore, this information
# //  is prohibited from disclosure under the Trade Secrets Act,
# //  18 U.S.C. Section 1905.
# //
# vsim -voptargs="+acc" tb_top "+TIMEOUT=10000000" "+num_of_testcases=4" "+epsilon_mult=1.0" "+input_dir=../inputs" "+mystery_test=0" -do "log -r *; do wave.do" 
# Start time: 23:23:57 on Oct 03,2024
# ** Note: (vsim-3812) Design is being optimized...
# ** Note: (vopt-143) Recognized 1 FSM in module "MyDesign(fast)".
# Loading sv_std.std
# Loading work.tb_top(fast)
# Loading work.sram(fast)
# Loading work.sram(fast__1)
# Loading work.MyDesign(fast)
# Loading work.DW_fp_mac_inst(fast)
# Loading work.DW_fp_mac(fast)
# Loading work.DW_fp_dp2(fast)
# log -r *
#  do wave.do
# ** UI-Msg: (vish-4014) No objects found matching '/tb_top/dut/compute_phase'.
# Executing ONERROR command at macro ./wave.do line 24
# ** UI-Msg: (vish-4014) No objects found matching '/tb_top/dut/compute_complete'.
# Executing ONERROR command at macro ./wave.do line 25
# ** UI-Msg: (vish-4014) No objects found matching '/tb_top/dut/compute_complete_sys'.
# Executing ONERROR command at macro ./wave.do line 26
# ** UI-Msg: (vish-4014) No objects found matching '/tb_top/dut/get_array_size'.
# Executing ONERROR command at macro ./wave.do line 27
# ** UI-Msg: (vish-4014) No objects found matching '/tb_top/dut/result_write_complete'.
# Executing ONERROR command at macro ./wave.do line 28
# ** UI-Msg: (vish-4014) No objects found matching '/tb_top/dut/dut_ready_r'.
# Executing ONERROR command at macro ./wave.do line 29
# ** UI-Msg: (vish-4014) No objects found matching '/tb_top/dut/current_state_sys'.
# Executing ONERROR command at macro ./wave.do line 30
# ** UI-Msg: (vish-4014) No objects found matching '/tb_top/dut/next_state_sys'.
# Executing ONERROR command at macro ./wave.do line 31
# ** UI-Msg: (vish-4014) No objects found matching '/tb_top/dut/current_state_input'.
# Executing ONERROR command at macro ./wave.do line 32
# ** UI-Msg: (vish-4014) No objects found matching '/tb_top/dut/next_state_input'.
# Executing ONERROR command at macro ./wave.do line 33
# ** UI-Msg: (vish-4014) No objects found matching '/tb_top/dut/current_state_weight'.
# Executing ONERROR command at macro ./wave.do line 34
# ** UI-Msg: (vish-4014) No objects found matching '/tb_top/dut/next_state_weight'.
# Executing ONERROR command at macro ./wave.do line 35
# ** UI-Msg: (vish-4014) No objects found matching '/tb_top/dut/save_array_size'.
# Executing ONERROR command at macro ./wave.do line 37
# ** UI-Msg: (vish-4014) No objects found matching '/tb_top/dut/get_input_array_size'.
# Executing ONERROR command at macro ./wave.do line 38
# ** UI-Msg: (vish-4014) No objects found matching '/tb_top/dut/get_weight_array_size'.
# Executing ONERROR command at macro ./wave.do line 39
# ** UI-Msg: (vish-4014) No objects found matching '/tb_top/dut/read_addr_sel_input'.
# Executing ONERROR command at macro ./wave.do line 40
# ** UI-Msg: (vish-4014) No objects found matching '/tb_top/dut/read_addr_sel_weight'.
# Executing ONERROR command at macro ./wave.do line 41
# ** UI-Msg: (vish-4014) No objects found matching '/tb_top/dut/write_enable_sel_input'.
# Executing ONERROR command at macro ./wave.do line 42
# ** UI-Msg: (vish-4014) No objects found matching '/tb_top/dut/write_enable_sel_weight'.
# Executing ONERROR command at macro ./wave.do line 43
# ** UI-Msg: (vish-4014) No objects found matching '/tb_top/dut/input_array_num_of_rows'.
# Executing ONERROR command at macro ./wave.do line 44
# ** UI-Msg: (vish-4014) No objects found matching '/tb_top/dut/input_array_num_of_cols'.
# Executing ONERROR command at macro ./wave.do line 45
# ** UI-Msg: (vish-4014) No objects found matching '/tb_top/dut/weight_array_num_of_rows'.
# Executing ONERROR command at macro ./wave.do line 46
# ** UI-Msg: (vish-4014) No objects found matching '/tb_top/dut/weight_array_num_of_cols'.
# Executing ONERROR command at macro ./wave.do line 47
# ** UI-Msg: (vish-4014) No objects found matching '/tb_top/dut/num_of_weight_cols_traversed'.
# Executing ONERROR command at macro ./wave.do line 48
# ** UI-Msg: (vish-4014) No objects found matching '/tb_top/dut/num_of_weight_matrix_traversed'.
# Executing ONERROR command at macro ./wave.do line 49
# ** UI-Msg: (vish-4014) No objects found matching '/tb_top/dut/input_row_loopback_offset'.
# Executing ONERROR command at macro ./wave.do line 50
run 20000ns
# INFO: number of testcases:           4
# INFO: DONE WITH RESETING DUT
# INFO:LVL0: ######## Running Test: 1 ########
# INFO: Reading memory file: ../inputs/test_1/test_1_input.dat
# INFO: Reading memory file: ../inputs/test_1/test_1_weight.dat
# Received filename in check_result = test
# INFO: ../inputs/test_1/test_1_result.dat
# [          0] Result MATCH: expected_result = 0.30261445045471191406, dut_result = 0.30261445045471191406
# [          1] Result MATCH: expected_result = 0.49913883209228515625, dut_result = 1.00825965404510498047
# [          2]:Difference = 0.60193863511085510254, expected_result = 0.92672187089920043945, dut_result = 0.32478323578834533691
# [          3]:Difference = 0.43029405921697616577, expected_result = 0.53322327136993408203, dut_result = 0.10292921215295791626
# [          4]:Difference = 0.60618770122528076172, expected_result = 0.60618770122528076172, dut_result = 0.00000000000000000000
# [          5]:Difference = 0.27004835009574890137, expected_result = 0.27004835009574890137, dut_result = 0.00000000000000000000
# [          6]:Difference = 0.61056590080261230469, expected_result = 0.61056590080261230469, dut_result = 0.00000000000000000000
# [          7]:Difference = 2.81260633468627929688, expected_result = 2.81260633468627929688, dut_result = 0.00000000000000000000
# [          8]:Difference = 0.59861218929290771484, expected_result = 0.59861218929290771484, dut_result = 0.00000000000000000000
# [          9]:Difference = 1.09119176864624023438, expected_result = 1.09119176864624023438, dut_result = 0.00000000000000000000
# [         10]:Difference = 0.76436382532119750977, expected_result = 0.76436382532119750977, dut_result = 0.00000000000000000000
# [         11]:Difference = 0.73161435127258300781, expected_result = 0.73161435127258300781, dut_result = 0.00000000000000000000
# [         12]:Difference = 1.93208241462707519531, expected_result = 1.93208241462707519531, dut_result = 0.00000000000000000000
# [         13]:Difference = 0.55436086654663085938, expected_result = 0.55436086654663085938, dut_result = 0.00000000000000000000
# [         14] Result MATCH: expected_result = 0.00174050789792090654, dut_result = 0.00000000000000000000
# [         15]:Difference = 0.60910791158676147461, expected_result = 0.60910791158676147461, dut_result = 0.00000000000000000000
# [         16]:Difference = 0.99011498689651489258, expected_result = 0.99011498689651489258, dut_result = 0.00000000000000000000
# [         17]:Difference = 0.17628864943981170654, expected_result = 0.17628864943981170654, dut_result = 0.00000000000000000000
# [         18]:Difference = 0.55849492549896240234, expected_result = 0.55849492549896240234, dut_result = 0.00000000000000000000
# [         19]:Difference = 1.12445104122161865234, expected_result = 1.12445104122161865234, dut_result = 0.00000000000000000000
# [         20]:Difference = 0.73935598134994506836, expected_result = 0.73935598134994506836, dut_result = 0.00000000000000000000
# [         21]:Difference = 0.19949835538864135742, expected_result = 0.19949835538864135742, dut_result = 0.00000000000000000000
# [         22] Result MATCH: expected_result = 0.00600038934499025345, dut_result = 0.00000000000000000000
# [         23]:Difference = 0.08864474296569824219, expected_result = 0.08864474296569824219, dut_result = 0.00000000000000000000
# [         24]:Difference = 0.10439661890268325806, expected_result = 0.10439661890268325806, dut_result = 0.00000000000000000000
# [         25]:Difference = 1.70898497104644775391, expected_result = 1.70898497104644775391, dut_result = 0.00000000000000000000
# [         26]:Difference = 1.32409191131591796875, expected_result = 1.32409191131591796875, dut_result = 0.00000000000000000000
# [         27]:Difference = 0.55508303642272949219, expected_result = 0.55508303642272949219, dut_result = 0.00000000000000000000
# [         28]:Difference = 1.60301494598388671875, expected_result = 1.60301494598388671875, dut_result = 0.00000000000000000000
# [         29]:Difference = 0.03185912966728210449, expected_result = 0.03185912966728210449, dut_result = 0.00000000000000000000
# [         30]:Difference = 2.36997818946838378906, expected_result = 2.36997818946838378906, dut_result = 0.00000000000000000000
# [         31]:Difference = 0.50015574693679809570, expected_result = 0.50015574693679809570, dut_result = 0.00000000000000000000
# [         32]:Difference = 0.28837865591049194336, expected_result = 0.28837865591049194336, dut_result = 0.00000000000000000000
# [         33]:Difference = 3.23924469947814941406, expected_result = 3.23924469947814941406, dut_result = 0.00000000000000000000
# [         34]:Difference = 1.26012158393859863281, expected_result = 1.26012158393859863281, dut_result = 0.00000000000000000000
# [         35]:Difference = 1.14006638526916503906, expected_result = 1.14006638526916503906, dut_result = 0.00000000000000000000
# [         36]:Difference = 0.66034013032913208008, expected_result = 0.66034013032913208008, dut_result = 0.00000000000000000000
# [         37]:Difference = 0.07926946133375167847, expected_result = 0.07926946133375167847, dut_result = 0.00000000000000000000
# [         38]:Difference = 0.55415219068527221680, expected_result = 0.55415219068527221680, dut_result = 0.00000000000000000000
# [         39]:Difference = 1.53644168376922607422, expected_result = 1.53644168376922607422, dut_result = 0.00000000000000000000
# [         40]:Difference = 0.53683722019195556641, expected_result = 0.53683722019195556641, dut_result = 0.00000000000000000000
# [         41]:Difference = 0.35564693808555603027, expected_result = 0.35564693808555603027, dut_result = 0.00000000000000000000
# [         42] Result MATCH: expected_result = 0.01612484082579612732, dut_result = 0.00000000000000000000
# [         43]:Difference = 0.19730849564075469971, expected_result = 0.19730849564075469971, dut_result = 0.00000000000000000000
# [         44]:Difference = 1.29778707027435302734, expected_result = 1.29778707027435302734, dut_result = 0.00000000000000000000
# [         45]:Difference = 0.80652391910552978516, expected_result = 0.80652391910552978516, dut_result = 0.00000000000000000000
# [         46]:Difference = 0.87487250566482543945, expected_result = 0.87487250566482543945, dut_result = 0.00000000000000000000
# [         47]:Difference = 2.17335987091064453125, expected_result = 2.17335987091064453125, dut_result = 0.00000000000000000000
# [         48]:Difference = 1.14055085182189941406, expected_result = 1.14055085182189941406, dut_result = 0.00000000000000000000
# [         49]:Difference = 0.45123767852783203125, expected_result = 0.45123767852783203125, dut_result = 0.00000000000000000000
# [         50]:Difference = 0.29787015914916992188, expected_result = 0.29787015914916992188, dut_result = 0.00000000000000000000
# [         51]:Difference = 0.24183276295661926270, expected_result = 0.24183276295661926270, dut_result = 0.00000000000000000000
# [         52]:Difference = 0.04454254359006881714, expected_result = 0.04454254359006881714, dut_result = 0.00000000000000000000
# [         53]:Difference = 0.64969033002853393555, expected_result = 0.64969033002853393555, dut_result = 0.00000000000000000000
# [         54]:Difference = 0.15894632041454315186, expected_result = 0.15894632041454315186, dut_result = 0.00000000000000000000
# [         55]:Difference = 0.12563292682170867920, expected_result = 0.12563292682170867920, dut_result = 0.00000000000000000000
# [         56]:Difference = 0.03193603828549385071, expected_result = 0.03193603828549385071, dut_result = 0.00000000000000000000
# [         57]:Difference = 0.85498654842376708984, expected_result = 0.85498654842376708984, dut_result = 0.00000000000000000000
# [         58]:Difference = 0.34015509486198425293, expected_result = 0.34015509486198425293, dut_result = 0.00000000000000000000
# [         59]:Difference = 0.46540859341621398926, expected_result = 0.46540859341621398926, dut_result = 0.00000000000000000000
# [         60]:Difference = 1.68572819232940673828, expected_result = 1.68572819232940673828, dut_result = 0.00000000000000000000
# [         61]:Difference = 2.25312590599060058594, expected_result = 2.25312590599060058594, dut_result = 0.00000000000000000000
# [         62]:Difference = 0.04499515146017074585, expected_result = 0.04499515146017074585, dut_result = 0.00000000000000000000
# [         63]:Difference = 0.76021361351013183594, expected_result = 0.76021361351013183594, dut_result = 0.00000000000000000000
# INFO:LVL0: ######## Running Test: 2 ########
# INFO: Reading memory file: ../inputs/test_2/test_2_input.dat
# INFO: Reading memory file: ../inputs/test_2/test_2_weight.dat
# End time: 23:33:45 on Oct 03,2024, Elapsed time: 0:09:48
# Errors: 0, Warnings: 0
